[
  {
    "mode": "REQUIRED", 
    "name": "timestamp", 
    "type": "TIMESTAMP"
  }, 
  {
    "mode": "NULLABLE", 
    "name": "temp1", 
    "type": "NUMERIC"
  }, 
  {
    "mode": "NULLABLE", 
    "name": "prs1", 
    "type": "NUMERIC"
  }, 
  {
    "mode": "NULLABLE", 
    "name": "rh1", 
    "type": "NUMERIC"
  }, 
  {
    "mode": "NULLABLE", 
    "name": "voc1", 
    "type": "NUMERIC"
  }, 
  {
    "mode": "NULLABLE", 
    "name": "mac", 
    "type": "NUMERIC"
  }
]
